<?xml version="1.0" encoding="utf-8"?>
<!-- Generator: Adobe Illustrator 24.2.3, SVG Export Plug-In . SVG Version: 6.00 Build 0)  -->
<svg version="1.1" id="Capa_1" xmlns="http://www.w3.org/2000/svg" xmlns:xlink="http://www.w3.org/1999/xlink" x="0px" y="0px"
	 viewBox="0 0 245.7 117.45" style="enable-background:new 0 0 245.7 117.45;" xml:space="preserve">
<style type="text/css">
	.st0{fill:#6F1D46;}
	.st1{fill:#7B868C;}
</style>
<g>
	<g>
		<path class="st0" d="M48.33,51.23c-0.02,0.01-0.04,0.03-0.06,0.04c-0.02,0.01-0.04,0.03-0.06,0.04c0,0-0.01,0.01-0.01,0.01
			c-0.01,0.01-0.02,0.02-0.03,0.03c-0.02,0.02-0.04,0.04-0.06,0.06c-0.01,0.02-0.02,0.03-0.03,0.05c-0.01,0.02-0.03,0.04-0.04,0.06
			c-0.01,0.02-0.02,0.04-0.03,0.06c-0.01,0.02-0.02,0.04-0.02,0.06c-0.01,0.02-0.01,0.04-0.02,0.07s-0.01,0.04-0.01,0.07
			c0,0.02,0,0.05,0,0.07c0,0.02,0,0.04,0,0.07c0,0.02,0.01,0.05,0.01,0.07c0,0.02,0.01,0.04,0.01,0.06
			c0.01,0.03,0.02,0.05,0.03,0.07c0.01,0.01,0.01,0.03,0.01,0.04c0,0,0.01,0.01,0.01,0.01c0.03,0.05,0.06,0.1,0.1,0.14l0.01,0.01
			c0,0,0,0,0,0l2.88,3.24c0,0,0,0,0.01,0c0.01,0.01,0.02,0.02,0.03,0.03c0.03,0.03,0.07,0.06,0.1,0.09
			c0.02,0.01,0.03,0.02,0.05,0.03c0.04,0.02,0.08,0.04,0.12,0.05c0.02,0.01,0.03,0.01,0.05,0.02c0.06,0.01,0.11,0.02,0.17,0.02
			c0,0,0,0,0,0c0,0,0,0,0,0c0,0,0,0,0,0c0.05,0,0.1-0.01,0.14-0.02c0.01,0,0.03-0.01,0.04-0.01c0.04-0.01,0.07-0.02,0.1-0.04
			c0.01,0,0.02-0.01,0.03-0.01c0.02-0.01,1.6-0.79,3.15-0.79c1.54,0,3.13,0.78,3.15,0.79c0.01,0.01,0.02,0.01,0.03,0.01
			c0.02,0.01,0.05,0.02,0.07,0.03c0.02,0.01,0.03,0.01,0.05,0.01c0.03,0.01,0.05,0.01,0.08,0.01c0.02,0,0.03,0,0.05,0
			c0.01,0,0.02,0,0.03,0c0.02,0,0.03,0,0.05-0.01c0.02,0,0.04,0,0.07-0.01c0.02,0,0.05-0.01,0.07-0.02
			c0.02-0.01,0.04-0.01,0.06-0.02c0.02-0.01,0.05-0.02,0.07-0.03c0.02-0.01,0.04-0.02,0.06-0.03c0.02-0.01,0.04-0.03,0.06-0.04
			c0.02-0.02,0.04-0.04,0.06-0.06c0.01-0.01,0.02-0.02,0.03-0.03l2.89-3.25c0-0.01,0.01-0.01,0.01-0.02
			c0.02-0.02,0.03-0.04,0.04-0.06c0.01-0.02,0.03-0.04,0.04-0.06c0-0.01,0.01-0.01,0.01-0.02c0.01-0.01,0.01-0.03,0.01-0.04
			c0.01-0.02,0.02-0.05,0.03-0.07c0.01-0.02,0.01-0.04,0.01-0.06c0-0.02,0.01-0.05,0.01-0.07c0-0.02,0-0.04,0-0.06
			c0-0.02,0-0.05,0-0.07c0-0.02-0.01-0.04-0.01-0.06c0-0.02-0.01-0.05-0.02-0.07c-0.01-0.02-0.01-0.04-0.02-0.06
			c-0.01-0.02-0.02-0.04-0.03-0.07c-0.01-0.02-0.02-0.04-0.04-0.06c-0.01-0.02-0.02-0.04-0.04-0.05c-0.02-0.02-0.04-0.04-0.05-0.06
			c-0.01-0.01-0.02-0.02-0.03-0.03c0,0-0.01-0.01-0.01-0.01c-0.02-0.02-0.04-0.03-0.06-0.04c-0.02-0.01-0.04-0.03-0.06-0.04
			c-0.01,0-0.01-0.01-0.02-0.01c-0.14-0.07-3.36-1.66-6.67-1.66c-3.31,0-6.53,1.6-6.67,1.66C48.34,51.22,48.34,51.23,48.33,51.23z
			 M60.2,52.11l-1.9,2.14c-0.68-0.28-1.97-0.72-3.28-0.72c-1.31,0-2.6,0.44-3.28,0.72l-1.9-2.14c1.12-0.45,3.17-1.14,5.18-1.14
			C57.03,50.97,59.08,51.66,60.2,52.11z"/>
		<path class="st0" d="M57.93,56.78c-0.06-0.03-1.46-0.72-2.92-0.72c-1.45,0-2.86,0.69-2.92,0.72c-0.35,0.17-0.49,0.6-0.32,0.95
			c0.17,0.35,0.6,0.49,0.95,0.32c0.01-0.01,1.17-0.58,2.28-0.58c1.11,0,2.27,0.57,2.28,0.58c0.1,0.05,0.21,0.07,0.31,0.07
			c0.26,0,0.51-0.14,0.63-0.39C58.42,57.37,58.28,56.95,57.93,56.78z"/>
		<path class="st0" d="M47.96,31.75c0,0.02,0.01,0.05,0.01,0.07c0,0.02,0.01,0.04,0.01,0.06c0.01,0.03,0.02,0.05,0.03,0.07
			c0.01,0.01,0.01,0.03,0.02,0.04c0,0.01,0.01,0.01,0.01,0.02c0.01,0.02,0.03,0.04,0.04,0.06c0.01,0.02,0.03,0.04,0.04,0.06
			c0,0.01,0.01,0.01,0.01,0.02l2.89,3.25c0,0,0,0,0.01,0c0.01,0.01,0.02,0.02,0.03,0.03c0.03,0.03,0.07,0.06,0.1,0.09
			c0.02,0.01,0.03,0.02,0.05,0.03c0.04,0.02,0.08,0.04,0.12,0.05c0.02,0.01,0.03,0.01,0.05,0.01c0.06,0.01,0.11,0.02,0.17,0.02
			c0,0,0,0,0,0c0,0,0,0,0,0c0,0,0,0,0,0c0.05,0,0.1-0.01,0.14-0.02c0.01,0,0.03-0.01,0.04-0.01c0.04-0.01,0.07-0.02,0.1-0.04
			c0.01,0,0.02-0.01,0.03-0.01c0.02-0.01,1.6-0.79,3.15-0.79c1.54,0,3.13,0.78,3.15,0.79c0.01,0.01,0.02,0.01,0.03,0.01
			c0.02,0.01,0.05,0.02,0.07,0.03c0.02,0.01,0.03,0.01,0.05,0.01c0.03,0.01,0.05,0.01,0.08,0.01c0.02,0,0.03,0,0.05,0
			c0.01,0,0.02,0,0.03,0c0.02,0,0.03,0,0.05,0c0.02,0,0.04,0,0.07-0.01c0.02,0,0.05-0.01,0.07-0.02c0.02-0.01,0.04-0.01,0.06-0.02
			c0.02-0.01,0.05-0.02,0.07-0.03c0.02-0.01,0.04-0.02,0.06-0.03c0.02-0.01,0.04-0.03,0.06-0.04c0.02-0.02,0.04-0.04,0.06-0.06
			c0.01-0.01,0.02-0.02,0.03-0.03l2.88-3.24c0,0,0,0,0,0l0.01-0.01c0.04-0.04,0.07-0.09,0.1-0.14c0,0,0.01-0.01,0.01-0.01
			c0.01-0.01,0.01-0.03,0.01-0.04c0.01-0.02,0.02-0.05,0.03-0.07c0.01-0.02,0.01-0.04,0.01-0.06c0-0.02,0.01-0.05,0.01-0.07
			c0-0.02,0-0.04,0-0.06c0-0.02,0-0.05,0-0.07c0-0.02-0.01-0.04-0.01-0.06c0-0.02-0.01-0.05-0.02-0.07
			c-0.01-0.02-0.01-0.04-0.02-0.06c-0.01-0.02-0.02-0.04-0.03-0.07c-0.01-0.02-0.02-0.04-0.04-0.06c-0.01-0.02-0.02-0.04-0.04-0.05
			c-0.02-0.02-0.04-0.04-0.05-0.06c-0.01-0.01-0.02-0.02-0.03-0.03c0,0-0.01-0.01-0.01-0.01c-0.02-0.02-0.04-0.03-0.06-0.04
			c-0.02-0.01-0.04-0.03-0.06-0.04c-0.01,0-0.01-0.01-0.02-0.01c-0.14-0.07-3.36-1.66-6.67-1.66c-3.31,0-6.53,1.6-6.67,1.66
			c-0.01,0-0.01,0.01-0.01,0.01c-0.02,0.01-0.04,0.03-0.06,0.04c-0.02,0.01-0.04,0.03-0.06,0.04c0,0-0.01,0.01-0.01,0.01
			c-0.01,0.01-0.02,0.02-0.03,0.03c-0.02,0.02-0.04,0.04-0.06,0.06c-0.01,0.02-0.02,0.03-0.03,0.05c-0.01,0.02-0.03,0.04-0.04,0.06
			c-0.01,0.02-0.02,0.04-0.03,0.06c-0.01,0.02-0.02,0.04-0.02,0.06c-0.01,0.02-0.01,0.04-0.02,0.07c0,0.02-0.01,0.04-0.01,0.07
			c0,0.02,0,0.05,0,0.07C47.96,31.71,47.96,31.73,47.96,31.75z M60.2,31.94l-1.9,2.14c-0.68-0.28-1.97-0.72-3.28-0.72
			c-1.31,0-2.6,0.44-3.28,0.72l-1.9-2.14c1.12-0.45,3.17-1.14,5.18-1.14C57.03,30.8,59.08,31.49,60.2,31.94z"/>
		<path class="st0" d="M52.73,37.87c0.01-0.01,1.17-0.58,2.28-0.58c1.11,0,2.27,0.57,2.28,0.58c0.1,0.05,0.21,0.07,0.31,0.07
			c0.26,0,0.51-0.14,0.63-0.39c0.17-0.35,0.03-0.77-0.32-0.95c-0.06-0.03-1.46-0.72-2.92-0.72c-1.45,0-2.86,0.7-2.92,0.72
			c-0.35,0.17-0.49,0.6-0.32,0.95C51.96,37.9,52.38,38.05,52.73,37.87z"/>
		<path class="st0" d="M39.85,41.26c-0.02,0.01-0.04,0.02-0.06,0.04c-0.02,0.01-0.04,0.03-0.06,0.05c0,0-0.01,0.01-0.01,0.01
			c-0.01,0.01-0.02,0.02-0.03,0.03c-0.02,0.02-0.04,0.04-0.06,0.06c-0.01,0.02-0.02,0.03-0.03,0.05c-0.01,0.02-0.03,0.04-0.04,0.06
			c-0.01,0.02-0.02,0.04-0.03,0.06c-0.01,0.02-0.02,0.04-0.02,0.06c-0.01,0.02-0.01,0.04-0.02,0.07c0,0.02-0.01,0.04-0.01,0.07
			c0,0.02,0,0.05,0,0.07c0,0.02,0,0.04,0,0.07c0,0.02,0.01,0.05,0.01,0.07c0,0.02,0.01,0.04,0.01,0.06
			c0.01,0.03,0.02,0.05,0.03,0.07c0.01,0.01,0.01,0.03,0.02,0.04c0,0,0.01,0.01,0.01,0.01c0.03,0.05,0.06,0.1,0.1,0.14l0.01,0.01
			c0,0,0,0,0,0l2.88,3.24c0,0,0,0,0.01,0c0.01,0.01,0.02,0.02,0.03,0.03c0.03,0.03,0.07,0.06,0.1,0.09
			c0.02,0.01,0.03,0.02,0.05,0.03c0.04,0.02,0.08,0.04,0.12,0.05c0.02,0.01,0.03,0.01,0.05,0.01c0.06,0.01,0.11,0.02,0.17,0.02
			c0,0,0,0,0,0c0,0,0,0,0,0c0,0,0,0,0,0c0.05,0,0.1-0.01,0.14-0.02c0.01,0,0.03-0.01,0.04-0.01c0.04-0.01,0.07-0.02,0.1-0.04
			c0.01,0,0.02-0.01,0.03-0.01c0.02-0.01,1.6-0.79,3.15-0.79c1.54,0,3.13,0.78,3.15,0.79c0.01,0.01,0.02,0.01,0.03,0.01
			c0.03,0.01,0.05,0.02,0.08,0.03c0.02,0,0.03,0.01,0.05,0.01c0.03,0.01,0.06,0.01,0.09,0.01c0.01,0,0.03,0,0.04,0
			c0.01,0,0.02,0,0.03,0c0.02,0,0.04,0,0.05-0.01c0.02,0,0.04,0,0.06-0.01c0.03,0,0.05-0.01,0.08-0.02
			c0.02-0.01,0.04-0.01,0.06-0.02c0.02-0.01,0.05-0.02,0.07-0.03c0.02-0.01,0.04-0.02,0.06-0.04c0.02-0.01,0.04-0.02,0.06-0.04
			c0.02-0.02,0.04-0.04,0.06-0.06c0.01-0.01,0.02-0.02,0.03-0.03l2.89-3.25c0-0.01,0.01-0.01,0.01-0.02
			c0.01-0.02,0.03-0.04,0.04-0.06c0.01-0.02,0.03-0.04,0.04-0.06c0-0.01,0.01-0.01,0.01-0.02c0.01-0.01,0.01-0.03,0.01-0.04
			c0.01-0.02,0.02-0.05,0.03-0.07c0.01-0.02,0.01-0.04,0.01-0.06c0-0.02,0.01-0.05,0.01-0.07c0-0.02,0-0.04,0-0.06
			c0-0.02,0-0.05,0-0.07c0-0.02-0.01-0.04-0.01-0.06c0-0.02-0.01-0.05-0.02-0.07c-0.01-0.02-0.01-0.04-0.02-0.06
			c-0.01-0.02-0.02-0.04-0.03-0.07c-0.01-0.02-0.02-0.04-0.04-0.06c-0.01-0.02-0.02-0.04-0.04-0.05c-0.02-0.02-0.04-0.04-0.05-0.06
			c-0.01-0.01-0.02-0.02-0.03-0.03c0,0-0.01-0.01-0.01-0.01c-0.02-0.02-0.04-0.03-0.06-0.05c-0.02-0.01-0.04-0.03-0.06-0.04
			c-0.01,0-0.01-0.01-0.02-0.01c-0.14-0.07-3.36-1.66-6.67-1.66c-3.31,0-6.53,1.6-6.67,1.66C39.86,41.25,39.85,41.26,39.85,41.26z
			 M51.72,42.14l-1.9,2.14c-0.68-0.28-1.97-0.72-3.28-0.72c-1.31,0-2.6,0.44-3.28,0.72l-1.9-2.14c1.12-0.45,3.17-1.14,5.18-1.14
			C48.55,41,50.6,41.69,51.72,42.14z"/>
		<path class="st0" d="M49.45,46.8c-0.06-0.03-1.46-0.72-2.92-0.72c-1.45,0-2.86,0.7-2.92,0.72c-0.35,0.17-0.49,0.6-0.32,0.95
			c0.17,0.35,0.6,0.49,0.95,0.32c0.01-0.01,1.17-0.58,2.28-0.58c1.11,0,2.27,0.57,2.28,0.58c0.1,0.05,0.21,0.07,0.31,0.07
			c0.26,0,0.51-0.14,0.63-0.39C49.94,47.4,49.8,46.98,49.45,46.8z"/>
		<path class="st0" d="M60.8,89.29c-0.1-0.08-2.44-1.88-4.88-1.88c-1.85,0-3.64,1.04-4.44,1.57c-0.8-0.53-2.59-1.57-4.44-1.57
			c-2.44,0-4.78,1.8-4.88,1.88c-0.31,0.24-0.36,0.68-0.12,0.99c0.14,0.18,0.35,0.27,0.56,0.27c0.15,0,0.3-0.05,0.43-0.15
			c0.02-0.02,2.05-1.58,4.01-1.58c1.95,0,3.99,1.56,4.01,1.58c0.02,0.01,0.04,0.02,0.06,0.04c0.02,0.01,0.03,0.02,0.05,0.03
			c0.02,0.01,0.05,0.02,0.07,0.03c0.02,0.01,0.04,0.01,0.05,0.02c0.02,0.01,0.05,0.01,0.07,0.02c0.02,0,0.04,0.01,0.06,0.01
			c0.02,0,0.05,0,0.07,0c0.02,0,0.05,0,0.07,0c0.02,0,0.04-0.01,0.06-0.01c0.02,0,0.05-0.01,0.07-0.02
			c0.02-0.01,0.04-0.01,0.05-0.02c0.02-0.01,0.05-0.02,0.07-0.03c0.02-0.01,0.03-0.02,0.05-0.03c0.02-0.01,0.04-0.02,0.05-0.03
			c0.02-0.02,2.06-1.58,4.01-1.58c1.95,0,3.99,1.56,4.01,1.58c0.13,0.1,0.28,0.15,0.43,0.15c0.21,0,0.42-0.09,0.56-0.27
			C61.16,89.98,61.11,89.53,60.8,89.29z"/>
		<path class="st0" d="M41.89,86.5c0,0.02,0,0.04,0.01,0.05c0.01,0.02,0.01,0.05,0.02,0.07c0.01,0.02,0.01,0.04,0.02,0.06
			c0.01,0.02,0.02,0.04,0.03,0.05c0.01,0.02,0.03,0.05,0.04,0.07c0,0.01,0.01,0.01,0.01,0.02c0.01,0.01,0.01,0.01,0.02,0.02
			c0.02,0.03,0.05,0.06,0.08,0.08c0.01,0.01,0.02,0.02,0.03,0.03c0.03,0.02,0.06,0.04,0.1,0.06c0.01,0,0.02,0.01,0.03,0.02
			c0.09,0.04,0.19,0.07,0.3,0.07c0.02,0,0.05,0,0.07-0.01c0.02,0,0.03,0,0.05-0.01c0.03,0,0.05-0.01,0.08-0.02
			c0.01,0,0.03-0.01,0.04-0.01c0.03-0.01,0.05-0.02,0.07-0.03c0.01-0.01,0.03-0.01,0.04-0.02c0.02-0.01,0.05-0.03,0.07-0.04
			c0,0,0.01-0.01,0.01-0.01c0.02-0.02,2.06-1.58,4.01-1.58c1.95,0,3.99,1.56,4.01,1.58c0.01,0,0.01,0.01,0.02,0.01
			c0.02,0.02,0.05,0.03,0.08,0.05c0.01,0.01,0.02,0.01,0.03,0.02c0,0,0.01,0,0.01,0c0.03,0.01,0.06,0.02,0.08,0.03
			c0.01,0,0.03,0.01,0.04,0.01c0,0,0,0,0.01,0c0,0,0.01,0,0.01,0c0.02,0.01,0.05,0.01,0.07,0.01c0.02,0,0.03,0,0.05,0
			c0.01,0,0.02,0,0.03,0c0.01,0,0.02,0,0.03,0c0.01,0,0.02,0,0.04,0c0.01,0,0.02,0,0.03,0c0.01,0,0.02,0,0.03,0
			c0.02,0,0.04-0.01,0.06-0.01c0.02-0.01,0.04-0.01,0.06-0.02c0.02-0.01,0.04-0.02,0.06-0.03c0.01-0.01,0.02-0.01,0.04-0.02
			c0.01,0,0.01-0.01,0.02-0.01c0,0,0,0,0,0c0.02-0.01,0.04-0.02,0.06-0.04c0.01,0,0.01-0.01,0.02-0.01
			c0.02-0.02,2.05-1.58,4.01-1.58c1.95,0,3.99,1.56,4.01,1.58c0,0,0.01,0.01,0.01,0.01c0.03,0.02,0.05,0.04,0.08,0.05
			c0.01,0.01,0.02,0.01,0.04,0.02c0.03,0.01,0.06,0.02,0.09,0.03c0.01,0,0.03,0.01,0.04,0.01c0.03,0.01,0.06,0.01,0.09,0.01
			c0.02,0,0.03,0,0.05,0c0.01,0,0.02,0,0.03,0c0.02,0,0.04,0,0.06-0.01c0.02,0,0.03,0,0.05-0.01c0.03,0,0.06-0.01,0.09-0.02
			c0.02,0,0.03-0.01,0.05-0.01c0.03-0.01,0.05-0.02,0.08-0.04c0.01-0.01,0.03-0.01,0.04-0.02c0.03-0.02,0.05-0.03,0.07-0.05
			c0.01-0.01,0.02-0.02,0.04-0.03c0.02-0.02,0.05-0.05,0.07-0.07c0.01-0.01,0.01-0.01,0.02-0.02c0,0,0-0.01,0.01-0.01
			c0.02-0.03,0.04-0.05,0.05-0.08c0.01-0.01,0.02-0.03,0.02-0.04c0.01-0.02,0.02-0.05,0.03-0.08c0.01-0.02,0.01-0.04,0.02-0.06
			c0.01-0.02,0.01-0.05,0.01-0.07c0-0.02,0.01-0.05,0.01-0.07c0-0.01,0-0.01,0-0.02V76.03c0-0.01,0-0.03,0-0.04
			c0-0.03,0-0.05-0.01-0.08c0-0.02-0.01-0.04-0.01-0.06c-0.01-0.02-0.01-0.05-0.02-0.07c-0.01-0.02-0.02-0.04-0.02-0.06
			c-0.01-0.02-0.02-0.05-0.04-0.07c-0.01-0.02-0.02-0.03-0.03-0.05c-0.02-0.02-0.03-0.04-0.05-0.06c-0.02-0.02-0.03-0.03-0.05-0.05
			c-0.01-0.01-0.02-0.02-0.03-0.03c-0.1-0.08-2.44-1.88-4.88-1.88c-1.85,0-3.64,1.04-4.44,1.57c-0.8-0.53-2.6-1.57-4.44-1.57
			c-2.44,0-4.78,1.8-4.88,1.88c-0.01,0.01-0.03,0.02-0.04,0.04c-0.01,0.01-0.03,0.02-0.04,0.04c-0.02,0.02-0.04,0.04-0.06,0.07
			c-0.01,0.01-0.02,0.03-0.03,0.04c-0.02,0.03-0.03,0.05-0.04,0.08c-0.01,0.01-0.01,0.03-0.02,0.04c-0.01,0.03-0.02,0.06-0.03,0.08
			c0,0.02-0.01,0.03-0.01,0.05c-0.01,0.03-0.01,0.06-0.01,0.09c0,0.01,0,0.02,0,0.03v10.37c0,0.01,0,0.01,0,0.02
			C41.89,86.44,41.89,86.47,41.89,86.5z M59.66,76.39v8.71c-0.93-0.53-2.32-1.14-3.74-1.14c-1.42,0-2.81,0.61-3.74,1.14v-8.71
			c0.62-0.42,2.21-1.38,3.74-1.38C57.45,75.01,59.04,75.97,59.66,76.39z M50.77,76.39v8.71c-0.93-0.53-2.32-1.14-3.74-1.14
			c-1.42,0-2.81,0.61-3.74,1.14v-8.71c0.62-0.42,2.21-1.38,3.74-1.38C48.56,75.01,50.15,75.97,50.77,76.39z"/>
		<path class="st0" d="M42.99,18.2c-1.65-3.63-3.47-7-5.65-7c-2.19,0-4.01,3.36-5.66,7l-0.28,0.62c-0.78,1.65-1.58,3.35-1.58,5.11
			c0,1.19,1.08,2.31,2.22,2.31c0.43,0,1.01-0.22,2.1-0.65c1.03-0.4,2.45-0.96,3.2-0.96c0.75,0,2.17,0.55,3.2,0.96
			c1.09,0.42,1.67,0.65,2.1,0.65c1.14,0,2.22-1.12,2.22-2.31c0-1.76-0.8-3.46-1.58-5.11L42.99,18.2z M42.64,24.83
			c-0.22-0.01-1.01-0.32-1.59-0.55c-1.26-0.49-2.7-1.05-3.72-1.05s-2.45,0.56-3.72,1.05c-0.58,0.23-1.37,0.54-1.58,0.55
			c-0.34,0-0.81-0.45-0.81-0.9c0-1.44,0.7-2.93,1.45-4.51l0.29-0.64c0.69-1.53,2.79-6.17,4.37-6.17c1.57,0,3.68,4.64,4.37,6.17
			L42,19.43c0.74,1.58,1.45,3.06,1.45,4.51C43.45,24.38,42.98,24.83,42.64,24.83z"/>
		<path class="st0" d="M27.71,24.11c0.39,0,0.71-0.32,0.71-0.71s-0.32-0.71-0.71-0.71H9.06c-0.39,0-0.71,0.32-0.71,0.71v72.1
			c0,1.6,1.08,2.97,2.87,3.59l20.14,5.72c1.78,0.5,3.84,1.19,5.54,2.5c0.04,0.03,0.07,0.05,0.11,0.07c0.01,0.01,0.02,0.01,0.03,0.01
			c0.04,0.02,0.07,0.03,0.11,0.04c0.01,0,0.02,0.01,0.04,0.01c0.05,0.01,0.09,0.02,0.14,0.02c0,0,0,0,0,0c0,0,0,0,0,0
			c0.05,0,0.09-0.01,0.14-0.02c0.01,0,0.02-0.01,0.04-0.01c0.04-0.01,0.07-0.02,0.11-0.04c0.01,0,0.02-0.01,0.03-0.01
			c0.04-0.02,0.08-0.04,0.11-0.07c1.7-1.31,3.76-2,5.54-2.5l20.18-5.73c1.75-0.6,2.83-1.97,2.83-3.57V23.4
			c0-0.39-0.32-0.71-0.71-0.71H46.96c-0.39,0-0.71,0.32-0.71,0.71s0.32,0.71,0.71,0.71h17.94V63.7H38.05v-2.81
			c0.03-0.12,0.03-0.24,0-0.35V26.8c0-0.39-0.32-0.71-0.71-0.71c-0.39,0-0.71,0.32-0.71,0.71v11.53c-0.17,0.19-0.35,0.39-0.57,0.62
			c-1.29,1.38-3.53,3.76-5.51,8.23c-2-3.89-3.07-5.79-3.52-6.24c-0.25-0.25-0.49-0.46-0.72-0.66c-0.01-0.01-0.01-0.01-0.02-0.02
			c-0.8-0.66-1.45-0.99-1.84-1.15l0.01-0.03c0.01-0.07,0.01-0.15,0.01-0.22c1.13,0,2.02-0.3,2.1-0.33l0.58-0.2l-0.63-3.08l0.89-1.14
			l-0.28-0.42c-0.07-0.1-1.26-1.92-2.2-3.2c0,0-0.01-0.01-0.01-0.01c-0.31-0.42-0.59-0.78-0.8-1c-1.14-1.22-3.68-0.94-5.54,0.62
			c-2.59,2.18-1.77,5.58-0.97,7.09c-0.2-0.02-0.44-0.07-0.72-0.16c-1.04-0.32-1.6-0.74-1.6-0.74c-0.31-0.24-0.75-0.18-0.99,0.13
			c-0.24,0.31-0.18,0.75,0.13,0.99c0.07,0.06,0.77,0.57,2.04,0.97c0.17,0.05,0.33,0.09,0.49,0.13c-1.01,0.23-2.16,0.67-2.97,1.48
			c-1.04,1.04-2.97,3.59-4.21,5.27V24.11H27.71z M14.14,48.26l1.13,4.54c-0.54,1.11-2.77,5.86-3.92,10.63
			c-0.02,0.09-0.02,0.18-0.01,0.26H9.77v-9.85L14.14,48.26z M18.65,39.68l2.86,7.21v0.25c-2.51-1.98-3.79-5.75-4.22-7.26
			C17.82,39.77,18.31,39.71,18.65,39.68z M25.32,55.62c-0.57-0.51-0.95-0.96-1.2-1.31c0.3-0.07,0.59-0.14,0.86-0.2
			c0.86-0.2,1.6-0.38,2.33-0.63C26.72,54.18,26.05,54.9,25.32,55.62z M22.92,55.07c0.3,0.43,0.73,0.94,1.35,1.51
			c-0.43,0.38-0.88,0.75-1.35,1.12V55.07z M21.79,51.21c0.44-0.3,0.81-0.36,1.1-0.18c0.38,0.24,0.57,0.8,0.53,1.08
			c-0.05,0.36-0.37,0.72-0.76,0.98c-0.04,0.02-0.08,0.05-0.11,0.07c-0.36,0.23-0.75,0.37-1.03,0.37c0,0-0.01,0-0.01,0
			c-0.33-0.01-0.52-0.29-0.79-0.87l-0.07-0.15C20.52,52.17,20.62,51.99,21.79,51.21z M21.79,60.13c0.02,0.03,0.04,0.06,0.07,0.09
			l3.47,3.47h-9.91c1.71-1.93,3.28-2.44,4.68-2.9C20.69,60.6,21.26,60.41,21.79,60.13z M36.63,65.11v13.71h-3.78l-0.82-9.95
			c0-0.02-0.01-0.03-0.01-0.05c0-0.02-0.01-0.04-0.01-0.06c-0.01-0.03-0.02-0.06-0.03-0.08c-0.01-0.01-0.01-0.03-0.02-0.04
			c-0.01-0.03-0.03-0.06-0.05-0.09c0-0.01-0.01-0.02-0.01-0.02c-0.02-0.03-0.04-0.06-0.07-0.09c-0.01-0.01-0.01-0.01-0.02-0.02
			c-0.02-0.02-0.05-0.04-0.08-0.06c-0.01-0.01-0.02-0.02-0.03-0.02c-0.02-0.01-0.05-0.03-0.07-0.04c-0.02-0.01-0.04-0.02-0.06-0.03
			c-0.02-0.01-0.04-0.01-0.06-0.02c-0.03-0.01-0.06-0.01-0.08-0.02c-0.02,0-0.04,0-0.05-0.01c-0.02,0-0.04-0.01-0.05-0.01h-2.12
			c-0.02,0-0.03,0-0.05,0.01c-0.02,0-0.04,0-0.06,0.01c-0.03,0-0.05,0.01-0.08,0.02c-0.02,0.01-0.04,0.01-0.06,0.02
			c-0.02,0.01-0.04,0.02-0.05,0.02c-0.03,0.01-0.05,0.03-0.08,0.04c-0.01,0.01-0.02,0.01-0.03,0.02c-0.03,0.02-0.05,0.04-0.08,0.07
			c-0.01,0.01-0.01,0.01-0.02,0.02c-0.03,0.03-0.05,0.05-0.07,0.08c-0.01,0.01-0.01,0.02-0.02,0.02c-0.02,0.03-0.03,0.06-0.05,0.09
			c-0.01,0.01-0.01,0.03-0.02,0.04c-0.01,0.03-0.02,0.05-0.03,0.08c0,0.02-0.01,0.04-0.01,0.06c0,0.02-0.01,0.03-0.01,0.05
			l-0.82,9.95h-3.78v-3.53c0-0.01,0-0.03,0-0.04c0-0.03,0-0.05-0.01-0.08c0-0.02-0.01-0.05-0.02-0.07
			c-0.01-0.02-0.01-0.04-0.02-0.06c-0.01-0.03-0.02-0.05-0.03-0.07c-0.01-0.01-0.01-0.03-0.02-0.04c0,0-0.01-0.01-0.01-0.01
			c-0.01-0.02-0.03-0.04-0.05-0.06c-0.01-0.02-0.03-0.03-0.04-0.05c-0.01-0.02-0.03-0.03-0.05-0.04c-0.02-0.02-0.04-0.03-0.06-0.05
			c-0.02-0.01-0.03-0.02-0.05-0.03c-0.02-0.01-0.04-0.03-0.07-0.04c-0.02-0.01-0.04-0.01-0.05-0.02c-0.03-0.01-0.05-0.02-0.08-0.02
			c-0.02,0-0.04-0.01-0.05-0.01c-0.03,0-0.06-0.01-0.09-0.01c-0.01,0-0.01,0-0.02,0c-0.01,0-0.03,0-0.04,0c-0.03,0-0.06,0-0.08,0.01
			c-0.02,0-0.04,0.01-0.06,0.02c-0.02,0.01-0.04,0.01-0.07,0.02c-0.03,0.01-0.05,0.02-0.07,0.03c-0.01,0.01-0.03,0.01-0.04,0.02
			l-6,3.6v-2.99c0-0.01,0-0.03,0-0.04c0-0.03,0-0.05-0.01-0.08c0-0.02-0.01-0.05-0.02-0.07c-0.01-0.02-0.01-0.04-0.02-0.06
			c-0.01-0.03-0.02-0.05-0.03-0.07c-0.01-0.01-0.01-0.03-0.02-0.04c0,0-0.01-0.01-0.01-0.01c-0.01-0.02-0.03-0.04-0.05-0.06
			c-0.01-0.02-0.02-0.03-0.04-0.05c-0.02-0.02-0.03-0.03-0.05-0.05c-0.02-0.01-0.03-0.03-0.05-0.04c-0.02-0.01-0.04-0.02-0.06-0.03
			c-0.02-0.01-0.04-0.02-0.06-0.03c-0.02-0.01-0.04-0.01-0.06-0.02c-0.02-0.01-0.05-0.02-0.07-0.02c-0.02,0-0.04-0.01-0.05-0.01
			c-0.03,0-0.06-0.01-0.09-0.01c-0.01,0-0.01,0-0.02,0c-0.01,0-0.03,0-0.04,0c-0.03,0-0.06,0-0.08,0.01c-0.02,0-0.04,0.01-0.06,0.02
			c-0.02,0.01-0.04,0.01-0.07,0.02c-0.03,0.01-0.05,0.02-0.07,0.03c-0.01,0.01-0.03,0.01-0.04,0.02l-6,3.6V65.11H36.63z
			 M11.65,97.74c-0.91-0.31-1.88-1.06-1.88-2.24V79.93l5.66-3.39v2.99c0,0.01,0,0.03,0,0.04c0,0.03,0,0.05,0.01,0.08
			c0,0.02,0.01,0.05,0.02,0.07c0.01,0.02,0.01,0.04,0.02,0.06c0.01,0.03,0.02,0.05,0.03,0.07c0.01,0.01,0.01,0.03,0.02,0.04
			c0,0,0.01,0.01,0.01,0.01c0.03,0.05,0.06,0.09,0.1,0.13c0.01,0.01,0.02,0.01,0.02,0.02c0.03,0.03,0.07,0.06,0.11,0.08
			c0.01,0.01,0.03,0.02,0.04,0.02c0.04,0.02,0.07,0.03,0.11,0.05c0.01,0,0.03,0.01,0.04,0.01c0.05,0.01,0.11,0.02,0.16,0.02
			c0,0,0,0,0,0c0,0,0,0,0,0c0,0,0,0,0,0c0.06,0,0.11-0.01,0.17-0.02c0.01,0,0.03-0.01,0.04-0.01c0.05-0.01,0.09-0.03,0.13-0.05
			c0.01,0,0.02-0.01,0.02-0.01l6-3.6v2.99c0,0.39,0.32,0.71,0.71,0.71h5.14c0,0,0,0,0,0c0,0,0,0,0,0c0.05,0,0.09-0.01,0.14-0.01
			c0.02,0,0.03-0.01,0.05-0.01c0.03-0.01,0.06-0.01,0.08-0.03c0.02-0.01,0.04-0.02,0.05-0.03c0.02-0.01,0.04-0.02,0.07-0.04
			c0.02-0.01,0.03-0.02,0.05-0.04c0.02-0.01,0.04-0.03,0.06-0.05c0.01-0.01,0.03-0.03,0.04-0.04c0.02-0.02,0.03-0.04,0.05-0.06
			c0.01-0.02,0.02-0.03,0.03-0.05c0.01-0.02,0.03-0.04,0.04-0.07c0.01-0.02,0.01-0.04,0.02-0.05c0.01-0.02,0.02-0.05,0.02-0.07
			c0-0.02,0.01-0.04,0.01-0.06c0-0.02,0.01-0.03,0.01-0.05l0.82-9.95h0.82l0.82,9.95c0,0.02,0.01,0.03,0.01,0.05
			c0,0.02,0.01,0.04,0.01,0.06c0.01,0.03,0.01,0.05,0.02,0.07c0.01,0.02,0.01,0.04,0.02,0.05c0.01,0.02,0.02,0.05,0.04,0.07
			c0.01,0.02,0.02,0.03,0.03,0.05c0.01,0.02,0.03,0.04,0.05,0.06c0.01,0.01,0.02,0.03,0.04,0.04c0.02,0.02,0.04,0.03,0.06,0.05
			c0.02,0.01,0.03,0.03,0.05,0.04c0.02,0.01,0.04,0.02,0.07,0.04c0.02,0.01,0.03,0.02,0.05,0.03c0.03,0.01,0.05,0.02,0.08,0.03
			c0.02,0,0.03,0.01,0.05,0.01c0.04,0.01,0.09,0.01,0.14,0.01c0,0,0,0,0,0c0,0,0,0,0,0h4.43v25.18c-1.61-0.96-3.34-1.53-4.88-1.97
			L11.65,97.74z M64.91,65.11v30.4c0,1.17-0.97,1.93-1.84,2.23l-20.14,5.72c-1.54,0.43-3.28,1-4.88,1.97V65.11H64.91z M27.05,63.7
			c0-0.18-0.07-0.35-0.2-0.48l-3.81-3.82c0.75-0.56,1.55-1.21,2.34-1.92c1.02,0.75,2.37,1.54,4.16,2.29c3.56,1.5,5.62,1.9,6.81,1.9
			c0.1,0,0.19,0,0.28-0.01v2.03H27.05z M36.63,40.41v19.83c-0.67,0.06-2.47-0.06-6.54-1.77c-1.56-0.66-2.76-1.34-3.66-1.97
			c1.93-1.89,3.67-4.09,4.4-6.18C32.73,44.91,35.05,42.12,36.63,40.41z M29.84,48.9c-0.12,0.31-0.23,0.62-0.34,0.94
			c-0.13,0.38-0.32,0.79-0.54,1.2c-1.46,1-2.53,1.26-4.24,1.66c0.04-0.13,0.08-0.26,0.1-0.39c0.07-0.5-0.06-1.15-0.41-1.7l3.53-2.22
			c0.33-0.21,0.43-0.64,0.22-0.97c-0.21-0.33-0.64-0.43-0.97-0.22l-3.91,2.46c-0.1-0.04-0.22-0.07-0.35-0.1v-0.34
			c2.11-2.06,3.02-5.09,3.4-6.88C26.76,43.03,27.73,44.75,29.84,48.9z M25.1,41.12c-0.15,0.99-0.68,3.73-2.18,5.91v-0.2l1.25-6.29
			C24.4,40.65,24.72,40.83,25.1,41.12z M25.5,37.35c-0.89,0.17-2.58,0.27-3.57-0.99c-0.24-0.31-0.68-0.36-0.99-0.12
			c-0.31,0.24-0.36,0.68-0.12,0.99c0.65,0.83,1.47,1.27,2.28,1.47c-0.01,0.03-0.02,0.07-0.03,0.1l-1.09,5.52l-2.19-5.63
			c0-0.01,0-0.01,0-0.02c0-0.01-0.49-1.38,0.76-4.14c0.79-1.75,2.67-2.55,3.52-2.83c0.56,0.78,1.18,1.7,1.6,2.33L25,34.91
			L25.5,37.35z M19.48,31.19c1.44-1.21,3.12-1.25,3.59-0.74c0.02,0.03,0.05,0.06,0.08,0.09C21.99,31,20.15,32,19.25,33.97
			c-0.32,0.7-0.53,1.32-0.68,1.87C18.19,34.75,17.77,32.63,19.48,31.19z M9.78,47.64c0.04-0.05,3.7-5.15,5.19-6.64
			c0.27-0.27,0.61-0.49,0.97-0.66c0.53,1.87,2.15,6.5,5.56,8.51v0.91c-0.19,0.08-0.38,0.19-0.59,0.33c-0.96,0.64-2.15,1.44-1.6,2.95
			l0.11,0.24c0.25,0.54,0.78,1.66,2.05,1.68c0.01,0,0.02,0,0.03,0v3.69c-0.5,0.35-1.11,0.55-1.85,0.8c-1.6,0.53-3.6,1.18-5.73,3.82
			c-0.1,0.13-0.15,0.28-0.15,0.43h-1.03c1.25-5.15,3.89-10.44,3.91-10.5c0.01-0.01,0.01-0.02,0.01-0.04
			c0.01-0.02,0.02-0.05,0.03-0.07c0.01-0.02,0.01-0.04,0.02-0.07c0-0.02,0.01-0.04,0.01-0.07c0-0.02,0-0.05,0-0.07
			c0-0.02,0-0.04,0-0.06c0-0.03-0.01-0.05-0.01-0.08c0-0.01,0-0.02,0-0.03l-1.55-6.19c0-0.01,0-0.01-0.01-0.02
			c-0.01-0.03-0.02-0.05-0.03-0.08c-0.01-0.02-0.01-0.03-0.02-0.05c-0.01-0.02-0.03-0.04-0.04-0.07c-0.01-0.02-0.02-0.04-0.04-0.05
			c-0.01-0.02-0.03-0.03-0.05-0.05c-0.02-0.02-0.03-0.03-0.05-0.05c-0.01-0.01-0.01-0.01-0.02-0.02c-0.01-0.01-0.03-0.02-0.04-0.02
			c-0.02-0.01-0.04-0.02-0.06-0.04c-0.02-0.01-0.05-0.02-0.07-0.03c-0.02-0.01-0.03-0.01-0.05-0.02c-0.03-0.01-0.05-0.02-0.08-0.02
			c-0.02,0-0.03-0.01-0.05-0.01c-0.03,0-0.06,0-0.09,0c-0.02,0-0.03,0-0.05,0c-0.03,0-0.06,0.01-0.09,0.01c-0.01,0-0.02,0-0.03,0
			c-0.01,0-0.01,0-0.01,0.01c-0.03,0.01-0.06,0.02-0.09,0.03c-0.01,0.01-0.03,0.01-0.04,0.02c-0.03,0.01-0.05,0.03-0.07,0.04
			c-0.02,0.01-0.03,0.02-0.05,0.03c-0.02,0.02-0.04,0.03-0.05,0.05c-0.02,0.02-0.03,0.03-0.05,0.05c-0.01,0.01-0.01,0.01-0.02,0.02
			l-4.15,5.29v-3.89C9.77,47.65,9.78,47.65,9.78,47.64z"/>
		<path class="st0" d="M71.27,17.04H45.12c-0.39,0-0.71,0.32-0.71,0.71c0,0.39,0.32,0.71,0.71,0.71h25.45v77.05
			c0,3.54-2.46,6.46-6.56,7.8l-19.79,5.66c0,0,0,0-0.01,0c0,0,0,0-0.01,0c-3.85,1.18-5.91,2.8-6.86,3.76
			c-0.96-0.96-3.02-2.58-6.86-3.76c0,0,0,0-0.01,0c0,0,0,0-0.01,0l-19.77-5.65c-4.12-1.35-6.58-4.27-6.58-7.81V18.45h25.44
			c0.39,0,0.71-0.32,0.71-0.71c0-0.39-0.32-0.71-0.71-0.71H3.41c-0.39,0-0.71,0.32-0.71,0.71v77.76c0,4.12,2.9,7.63,7.58,9.16
			l19.78,5.65c3.6,1.11,5.82,2.74,6.71,3.9c0,0.01,0.01,0.01,0.01,0.01c0.02,0.03,0.05,0.05,0.08,0.08
			c0.01,0.01,0.02,0.02,0.04,0.03c0,0,0.01,0.01,0.01,0.01c0.04,0.03,0.07,0.05,0.11,0.07c0.01,0,0.02,0.01,0.03,0.01
			c0.04,0.02,0.07,0.03,0.11,0.04c0.01,0,0.02,0.01,0.04,0.01c0.05,0.01,0.09,0.02,0.14,0.02c0,0,0,0,0,0c0,0,0,0,0,0
			c0.05,0,0.09-0.01,0.14-0.02c0.01,0,0.02-0.01,0.04-0.01c0.04-0.01,0.07-0.02,0.11-0.04c0.01,0,0.02-0.01,0.03-0.01
			c0.04-0.02,0.08-0.04,0.11-0.07c0,0,0.01-0.01,0.01-0.01c0.01-0.01,0.03-0.02,0.04-0.04c0.03-0.02,0.05-0.05,0.07-0.08
			c0-0.01,0.01-0.01,0.01-0.01c0.88-1.16,3.11-2.8,6.71-3.9l19.81-5.66c4.66-1.52,7.56-5.03,7.56-9.15V17.75
			C71.98,17.36,71.66,17.04,71.27,17.04z"/>
		<path class="st0" d="M26.15,9.51c-0.01,0.02-0.02,0.04-0.03,0.06c-0.01,0.02-0.02,0.04-0.02,0.07c-0.01,0.02-0.01,0.04-0.01,0.07
			c0,0.02-0.01,0.05-0.01,0.07c0,0.02,0,0.04,0,0.07c0,0.02,0,0.05,0,0.07c0,0.02,0.01,0.04,0.01,0.06
			c0.01,0.03,0.01,0.05,0.02,0.07c0,0.01,0,0.02,0.01,0.03c0.01,0.01,0.01,0.03,0.02,0.04c0.01,0.01,0.01,0.03,0.02,0.04
			c0.02,0.03,0.03,0.06,0.05,0.08c0.01,0.01,0.01,0.01,0.01,0.02c0.03,0.03,0.05,0.06,0.08,0.09c0.01,0.01,0.02,0.02,0.03,0.02
			c0.02,0.02,0.05,0.04,0.07,0.05c0.01,0,0.01,0.01,0.02,0.01c0,0,0.01,0,0.01,0.01c0.05,0.02,0.09,0.04,0.14,0.06
			c0.01,0,0.02,0,0.03,0.01c0.05,0.01,0.1,0.02,0.15,0.02c0,0,0,0,0,0c0,0,0,0,0,0c0,0,0,0,0,0c0.05,0,0.11-0.01,0.16-0.02
			c0.01,0,0.03-0.01,0.04-0.01c0.01,0,0.03-0.01,0.04-0.01l5.23-1.97c1.49,0.79,3.84,1.66,7.05,1.66c5.94,0,8.95-2.94,9.08-3.07
			c0.14-0.14,0.21-0.32,0.21-0.5c0-0.18-0.07-0.36-0.21-0.5c-0.12-0.12-3.13-3.07-9.08-3.07c-3.19,0-5.54,0.86-7.02,1.64l-5.26-1.96
			c-0.01,0-0.02,0-0.03-0.01c-0.02-0.01-0.04-0.01-0.06-0.02c-0.03-0.01-0.05-0.01-0.08-0.01c-0.02,0-0.04,0-0.06,0
			c-0.03,0-0.05,0-0.08,0c-0.02,0-0.04,0-0.06,0.01c-0.03,0-0.05,0.01-0.08,0.02c-0.02,0.01-0.04,0.01-0.05,0.02
			c-0.03,0.01-0.05,0.02-0.07,0.03c-0.01,0-0.02,0.01-0.02,0.01c-0.01,0.01-0.02,0.01-0.03,0.02c-0.02,0.01-0.04,0.03-0.07,0.05
			c-0.02,0.01-0.03,0.03-0.05,0.04c-0.02,0.02-0.04,0.04-0.05,0.05c-0.01,0.02-0.03,0.03-0.04,0.05c-0.01,0.02-0.03,0.04-0.04,0.06
			c-0.01,0.02-0.02,0.04-0.03,0.06c-0.01,0.01-0.01,0.02-0.02,0.03c0,0.01,0,0.02-0.01,0.03C26.11,3.2,26.1,3.23,26.1,3.25
			c0,0.02-0.01,0.04-0.01,0.07c0,0.02,0,0.05,0,0.07c0,0.02,0,0.05,0,0.07c0,0.02,0.01,0.05,0.01,0.07c0,0.02,0.01,0.04,0.01,0.07
			c0.01,0.02,0.01,0.04,0.02,0.06c0.01,0.02,0.02,0.04,0.03,0.07c0,0.01,0.01,0.02,0.01,0.03l1.61,2.87l-1.61,2.87
			C26.16,9.5,26.16,9.5,26.15,9.51z M46.76,6.61c-1.09,0.77-3.58,2.15-7.45,2.15c-3.12,0-5.33-0.89-6.65-1.64c0,0,0,0,0,0
			c-0.04-0.02-0.08-0.04-0.12-0.05c-0.01,0-0.01-0.01-0.02-0.01c-0.03-0.01-0.07-0.02-0.1-0.02c-0.02,0-0.03,0-0.05-0.01
			c-0.02,0-0.05,0-0.07,0c-0.03,0-0.05,0-0.07,0c-0.01,0-0.03,0-0.04,0.01c-0.04,0.01-0.07,0.02-0.11,0.03c0,0-0.01,0-0.01,0
			l-3.73,1.41l1.05-1.87l-1.05-1.88l3.77,1.4c0.01,0,0.02,0.01,0.03,0.01c0.02,0.01,0.03,0.01,0.05,0.01
			c0.03,0.01,0.05,0.01,0.08,0.01c0.02,0,0.03,0,0.05,0c0.01,0,0.02,0,0.03,0c0.02,0,0.04,0,0.06,0c0.01,0,0.02,0,0.04,0
			c0.04-0.01,0.08-0.01,0.12-0.03c0.01,0,0.01,0,0.02-0.01c0.04-0.01,0.07-0.03,0.1-0.05c0,0,0.01,0,0.01-0.01
			c1.31-0.74,3.51-1.62,6.62-1.62C43.18,4.46,45.67,5.85,46.76,6.61z"/>
		<path class="st0" d="M28.8,88.92h-0.74c-0.06-0.39-0.15-0.76-0.29-1.11l0.63-0.37c0.34-0.19,0.45-0.63,0.26-0.97
			c-0.2-0.34-0.63-0.46-0.97-0.26l-0.65,0.37c-0.24-0.3-0.51-0.57-0.81-0.81l0.37-0.65c0.2-0.34,0.08-0.77-0.26-0.97
			c-0.34-0.2-0.77-0.08-0.97,0.26l-0.37,0.63c-0.35-0.14-0.73-0.23-1.11-0.29v-0.74c0-0.39-0.32-0.71-0.71-0.71
			c-0.39,0-0.71,0.32-0.71,0.71v0.74c-0.39,0.06-0.76,0.15-1.11,0.29l-0.37-0.63c-0.2-0.34-0.63-0.46-0.97-0.26
			c-0.34,0.19-0.45,0.63-0.26,0.97l0.37,0.65c-0.3,0.24-0.57,0.51-0.81,0.81l-0.65-0.37c-0.34-0.2-0.77-0.08-0.97,0.26
			c-0.2,0.34-0.08,0.77,0.26,0.97l0.63,0.37c-0.14,0.35-0.23,0.73-0.29,1.11H17.6c-0.39,0-0.71,0.32-0.71,0.71s0.32,0.71,0.71,0.71
			h0.74c0.06,0.39,0.15,0.76,0.29,1.11L18,91.81c-0.34,0.19-0.45,0.63-0.26,0.97c0.13,0.23,0.37,0.35,0.61,0.35
			c0.12,0,0.24-0.03,0.35-0.1l0.65-0.37c0.24,0.3,0.51,0.57,0.81,0.81l-0.37,0.65c-0.2,0.34-0.08,0.77,0.26,0.97
			c0.11,0.06,0.23,0.1,0.35,0.1c0.24,0,0.48-0.13,0.61-0.35l0.37-0.63c0.35,0.14,0.73,0.23,1.11,0.29v0.74
			c0,0.39,0.32,0.71,0.71,0.71c0.39,0,0.71-0.32,0.71-0.71v-0.74c0.39-0.06,0.76-0.15,1.11-0.29l0.37,0.63
			c0.13,0.23,0.37,0.35,0.61,0.35c0.12,0,0.24-0.03,0.35-0.1c0.34-0.19,0.45-0.63,0.26-0.97l-0.37-0.65
			c0.3-0.24,0.57-0.51,0.81-0.81l0.65,0.37c0.11,0.06,0.23,0.1,0.35,0.1c0.24,0,0.48-0.13,0.61-0.35c0.2-0.34,0.08-0.77-0.26-0.97
			l-0.63-0.37c0.14-0.35,0.23-0.73,0.29-1.11h0.74c0.39,0,0.71-0.32,0.71-0.71S29.19,88.92,28.8,88.92z M23.2,93.14
			c-1.94,0-3.51-1.57-3.51-3.51c0-1.93,1.57-3.51,3.51-3.51s3.51,1.57,3.51,3.51C26.71,91.56,25.14,93.14,23.2,93.14z"/>
	</g>
	<g>
		<path class="st0" d="M106.15,34.12c0,2.98-2.19,4.97-5.6,4.97c-2.75,0-4.64-1.28-5.69-2.49l1.45-2.19
			c1.26,1.38,2.77,2.12,4.29,2.12c1.49,0,2.52-0.72,2.52-2.12c0-1.26-0.84-1.68-2.21-2.24l-2.52-1c-1.75-0.7-2.91-1.94-2.91-3.89
			c0-2.8,2.19-4.73,5.57-4.73c2.28,0,3.94,0.96,4.9,1.94l-1.45,2.17c-1.03-0.93-2.26-1.61-3.64-1.61c-1.33,0-2.38,0.65-2.38,1.84
			c0,1.17,1,1.61,1.84,1.96l2.68,1.1C105.27,30.85,106.15,32.11,106.15,34.12z"/>
		<path class="st0" d="M114.43,36.78c1.52,0,2.87-0.68,3.4-1.14l1.17,1.61c-0.63,0.65-2.33,1.82-5.08,1.82
			c-3.4,0-5.92-2.08-5.92-5.71c0-3.61,2.64-6.04,5.85-6.04c3.47,0,5.57,2.28,5.57,5.29c0,0.58-0.05,1.52-0.05,1.52h-8.3
			C111.35,35.91,112.73,36.78,114.43,36.78z M111.03,32.18h5.41c-0.05-1.24-0.51-2.66-2.61-2.66
			C112.05,29.52,111.12,30.76,111.03,32.18z"/>
		<path class="st0" d="M130.73,35.35l0.84,2.19c-0.23,0.21-1.4,1.52-4.41,1.52c-3.08,0-5.92-2.12-5.92-5.81
			c0-3.71,2.94-5.95,5.97-5.95c2.84,0,3.96,1.14,4.27,1.45l-0.82,2.24c-0.35-0.33-1.35-1.19-3.1-1.19c-1.77,0-3.19,1.24-3.19,3.31
			c0,2.08,1.42,3.43,3.36,3.43S130.73,35.35,130.73,35.35z"/>
		<path class="st0" d="M136.77,27.52l-0.05,1.82h0.07c0.44-1.21,1.56-2.03,2.77-2.03c0.77,0,1.19,0.21,1.19,0.21l-0.21,2.59h-0.14
			c-0.33-0.09-0.84-0.14-1.24-0.14c-0.89,0-1.56,0.37-1.98,1.1c-0.28,0.56-0.42,1.33-0.42,2.19v5.55h-2.96V27.52H136.77z"/>
		<path class="st0" d="M148.31,36.78c1.52,0,2.87-0.68,3.4-1.14l1.17,1.61c-0.63,0.65-2.33,1.82-5.08,1.82
			c-3.4,0-5.92-2.08-5.92-5.71c0-3.61,2.63-6.04,5.85-6.04c3.47,0,5.57,2.28,5.57,5.29c0,0.58-0.05,1.52-0.05,1.52h-8.3
			C145.23,35.91,146.61,36.78,148.31,36.78z M144.9,32.18h5.41c-0.05-1.24-0.51-2.66-2.61-2.66C145.93,29.52,145,30.76,144.9,32.18z
			"/>
		<path class="st0" d="M160.62,36.57c0.61,0,1.07-0.19,1.07-0.19l0.16,2.31c-0.14,0.05-1.03,0.37-2.29,0.37
			c-2.31,0-3.26-1.05-3.26-3.99v-5.22h-1.68v-2.31h1.68v-3.22h2.96v3.22h2.61v2.31h-2.61v4.57
			C159.27,36.15,159.57,36.57,160.62,36.57z"/>
		<path class="st0" d="M167.19,39.06c-2.19,0-3.96-1.19-3.96-3.54c0-2.35,2.31-3.26,4.64-3.43l2.7-0.19v-0.3
			c0-1.45-0.96-2.12-2.52-2.12c-1.49,0-2.73,0.56-3.22,0.93l-0.91-1.91c0.86-0.51,2.45-1.19,4.41-1.19c2.01,0,3.15,0.51,3.99,1.31
			c0.82,0.79,1.24,1.82,1.24,3.73v6.46h-2.87l-0.05-1.31C170.18,38.31,168.87,39.06,167.19,39.06z M166.22,35.42
			c0,0.96,0.72,1.61,1.96,1.61c1.17,0,2.03-0.68,2.43-1.24v-2.07l-2.03,0.12C166.98,33.93,166.22,34.47,166.22,35.42z"/>
		<path class="st0" d="M179.6,27.52l-0.05,1.82h0.07c0.44-1.21,1.56-2.03,2.78-2.03c0.77,0,1.19,0.21,1.19,0.21l-0.21,2.59h-0.14
			c-0.33-0.09-0.84-0.14-1.24-0.14c-0.89,0-1.56,0.37-1.98,1.1c-0.28,0.56-0.42,1.33-0.42,2.19v5.55h-2.96V27.52H179.6z"/>
		<path class="st0" d="M190.25,22.72l-2.49,3.38h-2.17l1.96-3.38H190.25z M188.64,27.52V38.8h-2.98V27.52H188.64z"/>
		<path class="st0" d="M195.1,39.06c-2.19,0-3.96-1.19-3.96-3.54c0-2.35,2.31-3.26,4.64-3.43l2.7-0.19v-0.3
			c0-1.45-0.96-2.12-2.52-2.12c-1.49,0-2.73,0.56-3.22,0.93l-0.91-1.91c0.86-0.51,2.45-1.19,4.41-1.19c2.01,0,3.15,0.51,3.99,1.31
			c0.82,0.79,1.24,1.82,1.24,3.73v6.46h-2.87l-0.05-1.31C198.09,38.31,196.78,39.06,195.1,39.06z M194.12,35.42
			c0,0.96,0.72,1.61,1.96,1.61c1.17,0,2.03-0.68,2.43-1.24v-2.07l-2.03,0.12C194.89,33.93,194.12,34.47,194.12,35.42z"/>
		<path class="st0" d="M104.08,61.19c-0.91,1.45-2.31,2.03-3.87,2.03c-3.31,0-5.34-2.56-5.34-5.92c0-3.19,2.12-5.83,5.55-5.83
			c1.52,0,2.8,0.56,3.59,1.77h0.05c-0.02-0.51-0.02-1.12-0.02-1.91v-4.45h2.96v16.09h-2.82l-0.02-1.77H104.08z M104.1,57.29
			c0-1.89-1.24-3.54-3.15-3.54c-1.94,0-3.05,1.66-3.05,3.54c0,1.96,1.21,3.5,3.15,3.5C102.84,60.79,104.1,59.42,104.1,57.29z"/>
		<path class="st0" d="M116.06,60.93c1.52,0,2.87-0.68,3.4-1.14l1.17,1.61c-0.63,0.65-2.33,1.82-5.08,1.82
			c-3.4,0-5.92-2.07-5.92-5.71c0-3.61,2.64-6.04,5.85-6.04c3.47,0,5.57,2.28,5.57,5.29c0,0.58-0.05,1.52-0.05,1.52h-8.3
			C112.99,60.07,114.36,60.93,116.06,60.93z M112.66,56.34h5.41c-0.05-1.24-0.51-2.66-2.61-2.66
			C113.69,53.68,112.75,54.92,112.66,56.34z"/>
		<path class="st0" d="M126.63,46.87v16.09h-2.96V46.87H126.63z"/>
		<path class="st0" d="M140.52,46.87c1.31,0,2.52,0.12,3.57,0.63c1.26,0.61,2.08,1.59,2.08,3.43c0,1.96-1.45,3.1-2.5,3.52v0.05
			c2.08,0.47,3.45,1.82,3.45,3.87c0,1.75-0.82,3.01-1.91,3.71c-1,0.63-2.43,0.89-3.96,0.89h-5.88V46.87H140.52z M142.2,53.19
			c0.56-0.35,0.89-0.91,0.89-1.87c0-1.4-1.1-2.08-2.66-2.08h-2.03v4.34h1.89C141.13,53.59,141.71,53.49,142.2,53.19z M143.16,60.14
			c0.54-0.35,0.89-1.07,0.89-1.91c0-0.89-0.4-1.49-1-1.91s-1.24-0.51-2.17-0.51h-2.47v4.78h2.61
			C141.78,60.58,142.53,60.56,143.16,60.14z"/>
		<path class="st0" d="M149.54,48.22c0-0.96,0.75-1.66,1.8-1.66c1.05,0,1.8,0.7,1.8,1.66c0,0.98-0.75,1.66-1.8,1.66
			C150.29,49.88,149.54,49.2,149.54,48.22z M152.83,51.67v11.28h-2.98V51.67H152.83z"/>
		<path class="st0" d="M161.88,60.93c1.52,0,2.87-0.68,3.4-1.14l1.17,1.61c-0.63,0.65-2.33,1.82-5.08,1.82
			c-3.4,0-5.92-2.07-5.92-5.71c0-3.61,2.64-6.04,5.85-6.04c3.47,0,5.57,2.28,5.57,5.29c0,0.58-0.05,1.52-0.05,1.52h-8.3
			C158.8,60.07,160.18,60.93,161.88,60.93z M158.47,56.34h5.41c-0.05-1.24-0.51-2.66-2.61-2.66
			C159.5,53.68,158.57,54.92,158.47,56.34z"/>
		<path class="st0" d="M174.82,53.91c-1.84,0-2.47,1.54-2.47,3.43v5.62h-2.98V51.67h2.98l-0.02,1.7h0.07
			c0.61-1.19,1.75-1.91,3.38-1.91c3.24,0,4.06,2.1,4.06,4.8v6.69h-2.98v-6.04C176.85,55.24,176.54,53.91,174.82,53.91z"/>
		<path class="st0" d="M188.71,60.93c1.52,0,2.87-0.68,3.4-1.14l1.17,1.61c-0.63,0.65-2.33,1.82-5.08,1.82
			c-3.4,0-5.92-2.07-5.92-5.71c0-3.61,2.64-6.04,5.85-6.04c3.47,0,5.57,2.28,5.57,5.29c0,0.58-0.05,1.52-0.05,1.52h-8.3
			C185.64,60.07,187.01,60.93,188.71,60.93z M185.31,56.34h5.41c-0.05-1.24-0.51-2.66-2.61-2.66
			C186.34,53.68,185.4,54.92,185.31,56.34z"/>
		<path class="st0" d="M200.07,53.7c-0.98,0-1.47,0.37-1.47,0.91c0,0.49,0.37,0.89,1.63,1.28l0.79,0.26c2.5,0.82,3.38,1.7,3.38,3.33
			c0,2.14-1.7,3.73-4.48,3.73c-1.73,0-3.66-0.7-4.57-1.75l1.21-2.03c1.33,1.03,2.47,1.54,3.43,1.54c1.12,0,1.63-0.42,1.63-1.07
			c0-0.58-0.44-0.91-1.89-1.4l-1.31-0.44c-1.68-0.56-2.54-1.56-2.54-3.22c0-2.05,1.87-3.38,4.03-3.38c2.01,0,3.12,0.54,4.06,1.21
			l-1.28,1.98C202.05,54.17,201.09,53.7,200.07,53.7z"/>
		<path class="st0" d="M211.61,60.72c0.61,0,1.07-0.19,1.07-0.19l0.16,2.31c-0.14,0.05-1.03,0.37-2.29,0.37
			c-2.31,0-3.26-1.05-3.26-3.99v-5.22h-1.68V51.7h1.68v-3.22h2.96v3.22h2.61v2.31h-2.61v4.57C210.26,60.3,210.56,60.72,211.61,60.72
			z"/>
		<path class="st0" d="M218.18,63.22c-2.19,0-3.96-1.19-3.96-3.54c0-2.35,2.31-3.26,4.64-3.43l2.7-0.19v-0.3
			c0-1.45-0.96-2.12-2.52-2.12c-1.49,0-2.73,0.56-3.22,0.93l-0.91-1.91c0.86-0.51,2.45-1.19,4.41-1.19c2.01,0,3.15,0.51,3.99,1.31
			c0.82,0.79,1.24,1.82,1.24,3.73v6.46h-2.87l-0.05-1.31C221.17,62.47,219.86,63.22,218.18,63.22z M217.21,59.58
			c0,0.96,0.72,1.61,1.96,1.61c1.17,0,2.03-0.68,2.43-1.24v-2.08l-2.03,0.12C217.97,58.09,217.21,58.62,217.21,59.58z"/>
		<path class="st0" d="M230.59,51.67l-0.05,1.82h0.07c0.44-1.21,1.56-2.03,2.78-2.03c0.77,0,1.19,0.21,1.19,0.21l-0.21,2.59h-0.14
			c-0.33-0.09-0.84-0.14-1.24-0.14c-0.89,0-1.56,0.37-1.98,1.1c-0.28,0.56-0.42,1.33-0.42,2.19v5.55h-2.96V51.67H230.59z"/>
	</g>
	<g>
		<path class="st1" d="M97.87,82.3h2.41v2.28c-0.2,0.19-0.93,0.95-2.46,0.95c-1.62,0-2.95-1.02-2.95-2.93
			c0-1.83,1.34-2.93,2.93-2.93c1.47,0,2.13,0.78,2.32,0.99l-0.72,0.64c-0.29-0.33-0.77-0.72-1.61-0.72c-1.04,0-1.83,0.74-1.83,2.02
			c0,1.28,0.82,2.02,1.87,2.02c1.05,0,1.39-0.43,1.39-0.43v-1.05h-1.37V82.3z"/>
		<path class="st1" d="M103.08,82.59c0-1.83,1.34-2.93,2.98-2.93c1.65,0,2.98,1.1,2.98,2.93c0,1.83-1.33,2.93-2.98,2.93
			C104.41,85.53,103.08,84.43,103.08,82.59z M106.05,80.59c-1.06,0-1.87,0.76-1.87,2c0,1.24,0.82,2,1.87,2c1.06,0,1.87-0.77,1.87-2
			C107.92,81.35,107.11,80.59,106.05,80.59z"/>
		<path class="st1" d="M113.92,79.74c0.46,0,0.89,0.04,1.26,0.22c0.45,0.21,0.73,0.56,0.73,1.21c0,0.69-0.51,1.1-0.88,1.24v0.02
			c0.73,0.16,1.22,0.64,1.22,1.37c0,0.62-0.29,1.06-0.68,1.31c-0.35,0.22-0.86,0.31-1.4,0.31h-2.08v-5.69H113.92z M114.52,81.98
			c0.2-0.12,0.31-0.32,0.31-0.66c0-0.5-0.39-0.73-0.94-0.73h-0.72v1.53h0.67C114.14,82.12,114.34,82.08,114.52,81.98z M114.85,84.43
			c0.19-0.12,0.31-0.38,0.31-0.68c0-0.31-0.14-0.53-0.35-0.68c-0.21-0.15-0.44-0.18-0.77-0.18h-0.87v1.69h0.92
			C114.37,84.59,114.63,84.58,114.85,84.43z"/>
		<path class="st1" d="M120.35,79.74v5.69h-1.07v-5.69H120.35z"/>
		<path class="st1" d="M127.23,79.74v0.89h-2.44v1.41h2.3v0.88h-2.3v1.62h2.51v0.89h-3.58v-5.69H127.23z"/>
		<path class="st1" d="M131.49,83.12v2.31h-1.07v-5.69h1.83c0.6,0,1.08,0.13,1.43,0.4c0.36,0.27,0.61,0.71,0.61,1.25
			c0,0.98-0.54,1.38-1.23,1.59l1.53,2.44h-1.25L132,83.12H131.49z M132.86,82.1c0.21-0.16,0.33-0.35,0.33-0.67
			c0-0.31-0.12-0.52-0.33-0.67c-0.21-0.16-0.47-0.18-0.82-0.18h-0.56v1.7h0.56C132.39,82.28,132.65,82.26,132.86,82.1z"/>
		<path class="st1" d="M138.4,82.64v2.79h-1.05v-5.69h1.14l2.83,4.15c0,0-0.02-0.67-0.02-1.34v-2.8h1.05v5.69h-1.08l-2.89-4.2
			C138.38,81.24,138.4,81.96,138.4,82.64z"/>
		<path class="st1" d="M145.42,82.59c0-1.83,1.34-2.93,2.98-2.93c1.65,0,2.98,1.1,2.98,2.93c0,1.83-1.33,2.93-2.98,2.93
			C146.75,85.53,145.42,84.43,145.42,82.59z M148.39,80.59c-1.06,0-1.87,0.76-1.87,2c0,1.24,0.82,2,1.87,2c1.06,0,1.87-0.77,1.87-2
			C150.26,81.35,149.45,80.59,148.39,80.59z"/>
		<path class="st1" d="M160.12,79.74c0.99,0,1.72,0.32,2.16,0.72c0.44,0.39,0.91,1.04,0.91,2.12c0,1.09-0.46,1.76-0.91,2.14
			c-0.44,0.39-1.17,0.71-2.16,0.71h-1.82v-5.69H160.12z M161.51,84.05c0.27-0.26,0.57-0.7,0.57-1.47c0-0.76-0.3-1.22-0.57-1.48
			c-0.28-0.26-0.73-0.46-1.35-0.46h-0.79v3.88h0.79C160.78,84.52,161.23,84.32,161.51,84.05z"/>
		<path class="st1" d="M169.76,79.74v0.89h-2.44v1.41h2.3v0.88h-2.3v1.62h2.51v0.89h-3.58v-5.69H169.76z"/>
		<path class="st1" d="M181.71,81.14l-1.52,4.32h-0.75l-1.48-4.32h-0.02l-0.31,4.29h-1.03l0.47-5.69h1.41l1.38,4.08h0.02l1.39-4.08
			h1.36l0.49,5.69h-1.06l-0.33-4.29H181.71z"/>
		<path class="st1" d="M187.33,79.74v5.69h-1.07v-5.69H187.33z"/>
		<path class="st1" d="M193.34,85.53c-1.67,0-2.95-1.13-2.95-2.93c0-1.8,1.3-2.93,2.95-2.93c1.11,0,1.76,0.47,1.99,0.7l-0.38,0.87
			c-0.16-0.21-0.81-0.65-1.62-0.65c-0.99,0-1.84,0.65-1.84,2c0,1.23,0.77,2.03,1.9,2.03c0.76,0,1.29-0.33,1.62-0.69l0.38,0.81
			C195.08,85.07,194.46,85.53,193.34,85.53z"/>
		<path class="st1" d="M199.41,82.92v2.51h-1.07v-5.69h1.07v2.28h2.65v-2.28h1.06v5.69h-1.06v-2.51H199.41z"/>
		<path class="st1" d="M206.2,82.59c0-1.83,1.34-2.93,2.98-2.93c1.65,0,2.98,1.1,2.98,2.93c0,1.83-1.33,2.93-2.98,2.93
			C207.53,85.53,206.2,84.43,206.2,82.59z M209.17,80.59c-1.06,0-1.87,0.76-1.87,2c0,1.24,0.82,2,1.87,2c1.06,0,1.87-0.77,1.87-2
			C211.05,81.35,210.23,80.59,209.17,80.59z"/>
		<path class="st1" d="M216.08,84.12l-0.5,1.31h-1.11l2.23-5.7h1.04l2.23,5.7h-1.17l-0.5-1.31H216.08z M218.05,83.26l-0.85-2.3
			l-0.86,2.3H218.05z"/>
		<path class="st1" d="M225.25,85.53c-1.67,0-2.95-1.13-2.95-2.93c0-1.8,1.3-2.93,2.95-2.93c1.11,0,1.76,0.47,1.99,0.7l-0.38,0.87
			c-0.16-0.21-0.81-0.65-1.62-0.65c-0.99,0-1.84,0.65-1.84,2c0,1.23,0.77,2.03,1.9,2.03c0.76,0,1.29-0.33,1.62-0.69l0.38,0.81
			C226.99,85.07,226.37,85.53,225.25,85.53z"/>
		<path class="st1" d="M231.31,84.12l-0.5,1.31h-1.11l2.23-5.7h1.04l2.23,5.7h-1.17l-0.5-1.31H231.31z M233.29,83.26l-0.85-2.3
			l-0.86,2.3H233.29z M233.69,78.17l-0.88,1.2h-0.77l0.69-1.2H233.69z"/>
		<path class="st1" d="M239.05,82.64v2.79H238v-5.69h1.14l2.83,4.15c0,0-0.02-0.67-0.02-1.34v-2.8H243v5.69h-1.08l-2.89-4.2
			C239.03,81.24,239.05,81.96,239.05,82.64z"/>
	</g>
</g>
</svg>
